tidyverse reference • pkgdoc
…
            Created by the pkgdoc package

      Source: vignettes/siteonly/reference-tidyverse.Rmd
      reference-tidyverse.Rmd

WARNING: This reference may be out of date. It aims to demonstrate pkgdoc – not to provide a search tool for the tidyverse.

library(pkgdoc)
library(tidyverse)
library(glue)
library(DT)

(docs <- reference_package(tidyverse:::core) %>% arrange(package))
#> # A tibble: 357 x 5
#>    topic     alias                title               concept       package
#>    <chr>     <chr>                <chr>               <chr>         <chr>  
#>  1 all_equal all_equal, all, all~ Flexible equality ~ <NA>          dplyr  
#>  2 all_vars  all_vars, any_vars   Apply predicate to~ <NA>          dplyr  
#>  3 arrange   arrange              Arrange rows by va~ single table~ dplyr  
#>  4 arrange_~ arrange_all, arrang~ Arrange rows by a ~ <NA>          dplyr  
#>  5 as.table~ as.table, as.data.f~ Coerce a 'tbl_cube~ <NA>          dplyr  
#>  6 as.tbl_c~ as.tbl_cube          Coerce an existing~ <NA>          dplyr  
#>  7 auto_copy auto_copy            Copy tables to sam~ <NA>          dplyr  
#>  8 band_mem~ band_members, band_~ Band membership     Datasets ava~ dplyr  
#>  9 between   between              Do values in a num~ <NA>          dplyr  
#> 10 bind      bind, rbind_all, rb~ Efficiently bind m~ <NA>          dplyr  
#> # ... with 347 more rows
…
