…
The examples below show real packages developed by Emily Riederer and Alex Hayes. But let’s imagine that these packages were developed during the Chicago R Unconference.

library(projmgr)
library(formulize)
library(safepredict)

emi_alex <- c("projmgr", "formulize", "safepredict")

A tibble

You can pull the documentation of the packages they built with pkgdoc::search_docs().

search_docs(emi_alex)
#> # A tibble: 93 x 11
#>    package libpath id    name  title topic encoding type  alias keyword
#>    <chr>   <chr>   <chr> <chr> <chr> <chr> <chr>    <chr> <chr> <chr>  
#>  1 formul~ C:/Use~ 97/1  form~ Crea~ form~ UTF-8    help  form~ <NA>   
#>  2 formul~ C:/Use~ 97/2  gene~ Turn~ gene~ UTF-8    help  gene~ <NA>   
#>  3 formul~ C:/Use~ 97/3  pred~ Pred~ pred~ UTF-8    help  pred~ <NA>   
#>  4 projmgr C:/Use~ 226/1 brow~ View~ brow~ UTF-8    help  brow~ <NA>   
#>  5 projmgr C:/Use~ 226/2 brow~ Brow~ brow~ UTF-8    help  brow~ <NA>   
#>  6 projmgr C:/Use~ 226/3 brow~ Brow~ brow~ UTF-8    help  brow~ <NA>   
#>  7 projmgr C:/Use~ 226/4 brow~ Brow~ brow~ UTF-8    help  brow~ <NA>   
#>  8 projmgr C:/Use~ 226/5 chec~ Chec~ chec~ UTF-8    help  chec~ <NA>   
#>  9 projmgr C:/Use~ 226/6 chec~ Chec~ chec~ UTF-8    help  chec~ <NA>   
#> 10 projmgr C:/Use~ 226/7 chec~ Find~ chec~ UTF-8    help  chec~ <NA>   
#> # ... with 83 more rows, and 1 more variable: concept <chr>

What concepts were covered (created with the tag @family)?

emi_alex %>% 
  search_docs() %>% 
  filter(!is.na(concept)) %>% 
  select(package, alias, concept)
#> # A tibble: 37 x 3
#>    package   alias              concept   
#>    <chr>     <chr>              <chr>     
#>  1 formulize formulize          chirunconf
#>  2 formulize genericize         chirunconf
#>  3 formulize predict.wrapped    chirunconf
#>  4 projmgr   browse_docs        chirunconf
#>  5 projmgr   browse_issues      chirunconf
#>  6 projmgr   browse_milestones  chirunconf
#>  7 projmgr   browse_repo        chirunconf
#>  8 projmgr   check_internet     check     
#>  9 projmgr   check_rate_limit   check     
#> 10 projmgr   get_issue_comments comments  
#> # ... with 27 more rows
…
