Reference Documented R Objects Across Multiple Packages • pkgdoc
…
# install.packages("pak")
pak::pak("maurolepore/pkgdoc")

Example

library(pkgdoc)
library(fgeo.x)
library(fgeo.plot)

universe <- c("fgeo.plot", "fgeo.x")

docs <- reference_package(universe, url = "https://forestgeo.github.io/")
docs
#> # A tibble: 32 × 5
#>    topic                                             alias title concept package
#>    <glue>                                            <chr> <chr> <chr>   <glue> 
#>  1 <a href=https://forestgeo.github.io/fgeo.plot/re… auto… Plot… autopl… <a hre…
#>  2 <a href=https://forestgeo.github.io/fgeo.plot/re… auto… Plot… plot f… <a hre…
#>  3 <a href=https://forestgeo.github.io/fgeo.plot/re… auto… Plot… autopl… <a hre…
#>  4 <a href=https://forestgeo.github.io/fgeo.plot/re… auto… Plot… functi… <a hre…
#>  5 <a href=https://forestgeo.github.io/fgeo.plot/re… auto… Plot… functi… <a hre…
#>  6 <a href=https://forestgeo.github.io/fgeo.plot/re… auto… Plot… plot f… <a hre…
#>  7 <a href=https://forestgeo.github.io/fgeo.plot/re… auto… List… functi… <a hre…
#>  8 <a href=https://forestgeo.github.io/fgeo.plot/re… auto… List… functi… <a hre…
#>  9 <a href=https://forestgeo.github.io/fgeo.plot/re… auto… List… functi… <a hre…
#> 10 <a href=https://forestgeo.github.io/fgeo.plot/re… auto… List… plot f… <a hre…
#> # ℹ 22 more rows
…
