…
## Example

``` r
library(pkgdoc)
library(fgeo.x)
library(fgeo.plot)

universe <- c("fgeo.x", "fgeo.plot")

universe |> 
  reference_package(url = "https://forestgeo.github.io/")
#> # A tibble: 32 × 5
#>    topic                                             alias title concept package
#>    <glue>                                            <chr> <chr> <chr>   <glue> 
#>  1 <a href=https://forestgeo.github.io/fgeo.plot/re… auto… Plot… autopl… <a hre…
#>  2 <a href=https://forestgeo.github.io/fgeo.plot/re… auto… Plot… plot f… <a hre…
#>  3 <a href=https://forestgeo.github.io/fgeo.plot/re… auto… Plot… autopl… <a hre…
#>  4 <a href=https://forestgeo.github.io/fgeo.plot/re… auto… Plot… functi… <a hre…
#>  5 <a href=https://forestgeo.github.io/fgeo.plot/re… auto… Plot… functi… <a hre…
#>  6 <a href=https://forestgeo.github.io/fgeo.plot/re… auto… Plot… plot f… <a hre…
#>  7 <a href=https://forestgeo.github.io/fgeo.plot/re… auto… List… functi… <a hre…
#>  8 <a href=https://forestgeo.github.io/fgeo.plot/re… auto… List… functi… <a hre…
#>  9 <a href=https://forestgeo.github.io/fgeo.plot/re… auto… List… functi… <a hre…
#> 10 <a href=https://forestgeo.github.io/fgeo.plot/re… auto… List… plot f… <a hre…
#> # ℹ 22 more rows
```
…
