Create a data.frame with documentation metadata of one or more packages — reference_package • pkgdoc
…
    Value

    A dataframe.

    See also

    Other retrieve documentation:
search_docs()

    Examples

reference_package("datasets")
#> # A tibble: 87 × 5
#>    topic          alias                 title                    concept package
#>    <chr>          <chr>                 <chr>                    <chr>   <chr>  
#>  1 AirPassengers  AirPassengers         Monthly Airline Passeng… Datase… datase…
#>  2 BJsales        BJsales, BJsales.lead Sales Data with Leading… Datase… datase…
#>  3 BOD            BOD                   Biochemical Oxygen Dema… Datase… datase…
#>  4 CO2            CO2                   Carbon Dioxide Uptake i… Datase… datase…
#>  5 ChickWeight    ChickWeight           Weight versus age of ch… Datase… datase…
#>  6 DNase          DNase                 Elisa assay of DNase     Datase… datase…
#>  7 EuStockMarkets EuStockMarkets        Daily Closing Prices of… Datase… datase…
#>  8 Formaldehyde   Formaldehyde          Determination of Formal… Datase… datase…
#>  9 HairEyeColor   HairEyeColor          Hair and Eye Color of S… Datase… datase…
#> 10 Harman23.cor   Harman23.cor          Harman Example 2.3       Datase… datase…
#> # ℹ 77 more rows
…
