tidyverse reference • pkgdoc
…
      Source: vignettes/siteonly/reference-tidyverse.Rmd
      reference-tidyverse.Rmd

WARNING: This reference may be out of date. It aims to demonstrate pkgdoc – not to provide a search tool for the tidyverse.

library(pkgdoc)
library(tidyverse)
library(glue)
library(DT)

Let’s pull the documentation of all core-tidyverse-packages with pkgdoc.

(docs <- reference_package(tidyverse:::core))
#> # A tibble: 380 x 5
#>    topic       alias             title                concept       package
#>    <chr>       <chr>             <chr>                <chr>         <chr>  
#>  1 .pt         .pt, .stroke      Graphical units      Datasets ava… ggplot2
#>  2 +.gg        +, %+%            Add components to a… <NA>          ggplot2
#>  3 accumulate  accumulate, accu… Accumulate intermed… <NA>          purrr  
#>  4 add_column  add_column        Add columns to a da… addition      tibble 
#>  5 add_row     add_row, add_case Add rows to a data … addition      tibble 
#>  6 aes         aes               Construct aesthetic… <NA>          ggplot2
#>  7 aes_        aes_, aes_string… Define aesthetic ma… <NA>          ggplot2
#>  8 aes_colour… aes_colour_fill_… Colour related aest… <NA>          ggplot2
#>  9 aes_group_… aes_group_order,… Aesthetics: grouping <NA>          ggplot2
#> 10 aes_linety… aes_linetype_siz… Differentiation rel… <NA>          ggplot2
#> # … with 370 more rows
…
link_package <- function(package) {
  glue("<a href=https://{package}.tidyverse.org/index.html>{package}</a>")
}

linked <- docs %>% 
  mutate(
    topic   = link_topic(package, topic),
    package = link_package(package)
)

linked
#> # A tibble: 380 x 5
#>    topic             alias        title          concept    package        
#>    <glue>            <chr>        <chr>          <chr>      <glue>         
#>  1 <a href=https://… .pt, .stroke Graphical uni… Datasets … <a href=https:…
#>  2 <a href=https://… +, %+%       Add component… <NA>       <a href=https:…
#>  3 <a href=https://… accumulate,… Accumulate in… <NA>       <a href=https:…
#>  4 <a href=https://… add_column   Add columns t… addition   <a href=https:…
#>  5 <a href=https://… add_row, ad… Add rows to a… addition   <a href=https:…
#>  6 <a href=https://… aes          Construct aes… <NA>       <a href=https:…
#>  7 <a href=https://… aes_, aes_s… Define aesthe… <NA>       <a href=https:…
#>  8 <a href=https://… aes_colour_… Colour relate… <NA>       <a href=https:…
#>  9 <a href=https://… aes_group_o… Aesthetics: g… <NA>       <a href=https:…
#> 10 <a href=https://… aes_linetyp… Differentiati… <NA>       <a href=https:…
#> # … with 370 more rows
…
