Dataframe the Documentation of Installed Packages • pkgdoc
…
Installation

You can install the released version of pkgdoc from CRAN with:

# install.packages("devtools")
devtools::install_github("maurolepore/pkgdoc")

Example

library(pkgdoc)

# Documentation of all installed packages
search_docs()
#> # A tibble: 71,919 x 11
#>    package libpath id    name  title topic encoding type  alias keyword
#>    <chr>   <chr>   <chr> <chr> <chr> <chr> <chr>    <chr> <chr> <chr>  
#>  1 acepack C:/Use~ 1/1   ace   Alte~ ace   ""       help  ace   models 
#>  2 acepack C:/Use~ 1/2   avas  Addi~ avas  ""       help  avas  models 
#>  3 acepack C:/Use~ 1/2   avas  Addi~ avas  ""       help  avas~ models 
#>  4 addine~ C:/Use~ 2/1   addi~ RStu~ addi~ ""       help  addi~ <NA>   
#>  5 addine~ C:/Use~ 2/1   addi~ RStu~ addi~ ""       help  addi~ <NA>   
#>  6 addine~ C:/Use~ 2/2   find~ Find~ find~ ""       help  find~ <NA>   
#>  7 addine~ C:/Use~ 2/3   inse~ Inse~ inse~ ""       help  inse~ <NA>   
#>  8 addine~ C:/Use~ 2/4   refo~ Refo~ refo~ ""       help  refo~ <NA>   
#>  9 addine~ C:/Use~ 2/5   subs~ Subs~ subs~ ""       help  subs~ <NA>   
#> 10 AGBflu~ C:/Use~ 3/1   AGBf~ AGBf~ AGBf~ UTF-8    help  AGBf~ intern~
#> # ... with 71,909 more rows, and 1 more variable: concept <chr>

some_packages <- c("utils", "base")
search_docs(some_packages)
#> # A tibble: 5,935 x 11
#>    package libpath id    name  title topic encoding type  alias keyword
#>    <chr>   <chr>   <chr> <chr> <chr> <chr> <chr>    <chr> <chr> <chr>  
#>  1 base    C:/Use~ 10/1  abbr~ Abbr~ abbr~ ""       help  abbr~ charac~
#>  2 base    C:/Use~ 10/2  agrep Appr~ agrep ""       help  agrep charac~
#>  3 base    C:/Use~ 10/2  agrep Appr~ agrep ""       help  agre~ charac~
#>  4 base    C:/Use~ 10/2  agrep Appr~ agrep ""       help  fuzz~ charac~
#>  5 base    C:/Use~ 10/2  agrep Appr~ agrep ""       help  .ama~ charac~
#>  6 base    C:/Use~ 10/2  agrep Appr~ agrep ""       help  .ama~ charac~
#>  7 base    C:/Use~ 10/3  all.~ Test~ all.~ ""       help  all.~ progra~
#>  8 base    C:/Use~ 10/3  all.~ Test~ all.~ ""       help  all.~ progra~
#>  9 base    C:/Use~ 10/3  all.~ Test~ all.~ ""       help  all.~ progra~
#> 10 base    C:/Use~ 10/3  all.~ Test~ all.~ ""       help  all.~ progra~
#> # ... with 5,925 more rows, and 1 more variable: concept <chr>

reference_package(c("stats", "MASS"))
#> # A tibble: 970 x 3
#>    topic       alias                   title                               
#>    <chr>       <chr>                   <chr>                               
#>  1 .checkMFCl~ .checkMFClasses, .MFcl~ Functions to Check the Type of Vari~
#>  2 .preformat~ .preformat.ts, print    Printing and Formatting of Time-Ser~
#>  3 abbey       abbey                   Determinations of Nickel Content    
#>  4 accdeaths   accdeaths               Accidental Deaths in the US 1973-19~
#>  5 acf         acf, ccf, pacf, [       Auto- and Cross- Covariance and -Co~
#>  6 acf2AR      acf2AR                  Compute an AR Process Exactly Fitti~
#>  7 add.scope   add.scope, drop.scope,~ Compute Allowed Changes in Adding t~
#>  8 add1        add1, drop1             Add or Drop All Possible Single Ter~
#>  9 addmargins  addmargins              Puts Arbitrary Margins on Multidime~
#> 10 addmargins  addmargins              Puts Arbitrary Margins on Multidime~
#> # ... with 960 more rows
…
